{
  "professional":
  {
      "domain_id":1,
      "name":"Professional Annual",
      "description":"Annual Professional IIDA Membership",
      "member_of_contact":"International Interior Design Association",
      "duration_unit":"year",
      "duration_interval":1,
      "period_type":"fixed",
      "fixed_period_start_day":101,
      "fixed_period_rollover_day":1231,
      "minimum_fee":515,
      "visibility":"Public",
      "weight":-160,
      "is_active":1
    },
  "professional_monthly":
    {
      "domain_id":1,
      "name":"Professional Monthly",
      "description":"Monthly Professional IIDA Membership",
      "member_of_contact":"International Interior Design Association",
      "duration_unit":"month",
      "duration_interval":1,
      "period_type":"rolling",
      "minimum_fee":43,
      "auto_renew":2,
      "visibility":"Public",
      "weight":-150,
      "is_active":1
    },
  "associate_1":
    {
      "domain_id":1,
      "name":"Associate I Annual",
      "description":"Annual Associate I IIDA Membership",
      "member_of_contact":"International Interior Design Association",
      "duration_unit":"year",
      "duration_interval":1,
      "period_type":"fixed",
      "fixed_period_start_day":101,
      "fixed_period_rollover_day":1231,
      "minimum_fee":295,
      "visibility":"Public",
      "weight":-140,
      "is_active":1
    },
  "associate_1_monthly":
    {
      "domain_id":1,
      "name":"Associate I Monthly",
      "description":"Monthly Associate I IIDA Membership",
      "member_of_contact":"International Interior Design Association",
      "duration_unit":"month",
      "duration_interval":1,
      "auto_renew":2,
      "period_type":"rolling",
      "minimum_fee":25,
      "visibility":"Public",
      "weight":-130,
      "is_active":1
    },
  "associate_2":
    {
      "domain_id":1,
      "name":"Associate II Annual",
      "description":"Annual Associate II IIDA Membership",
      "member_of_contact":"International Interior Design Association",
      "duration_unit":"year",
      "duration_interval":1,
      "period_type":"fixed",
      "fixed_period_start_day":101,
      "fixed_period_rollover_day":1231,
      "minimum_fee":435,
      "visibility":"Public",
      "weight":-120,
      "is_active":1
    },
  "associate_2_monthly":
    {
      "domain_id":1,
      "name":"Associate II Monthly",
      "description":"Monthly Associate II IIDA Membership",
      "member_of_contact":"International Interior Design Association",
      "duration_unit":"month",
      "duration_interval":1,
      "period_type":"rolling",
      "auto_renew":2,
      "minimum_fee":36.25,
      "visibility":"Public",
      "weight":-110,
      "is_active":1
    },
  "associate_3":
    {
      "domain_id":1,
      "name":"Associate III Annual",
      "description":"Annual Associate III IIDA Membership",
      "member_of_contact":"International Interior Design Association",
      "duration_unit":"year",
      "duration_interval":1,
      "period_type":"fixed",
      "fixed_period_start_day":101,
      "fixed_period_rollover_day":1231,
      "minimum_fee":515,
      "visibility":"Public",
      "weight":-100,
      "is_active":1
    },
  "associate_3_monthly":
  {
    "domain_id":1,
    "name":"Associate III Monthly",
    "description":"Monthly Associate III IIDA Membership",
    "member_of_contact":"International Interior Design Association",
    "duration_unit":"month",
    "duration_interval":1,
    "period_type":"rolling",
    "auto_renew":2,
    "minimum_fee":43,
    "visibility":"Public",
    "weight":-90,
    "is_active":1
  },
  "affiliate":
    {
      "domain_id":1,
      "name":"Affiliate Annual",
      "description":"Annual Affiliate IIDA Membership",
      "member_of_contact":"International Interior Design Association",
      "duration_unit":"year",
      "duration_interval":1,
      "period_type":"fixed",
      "fixed_period_start_day":101,
      "fixed_period_rollover_day":1231,
      "minimum_fee":515,
      "visibility":"Public",
      "weight":-80,
      "is_active":1
    },
  "affiliate_monthly":
  {
    "domain_id":1,
    "name":"Affiliate Monthly",
    "description":"Monthly Affiliate IIDA Membership",
    "member_of_contact":"International Interior Design Association",
    "duration_unit":"month",
    "duration_interval":1,
    "period_type":"rolling",
    "auto_renew":2,
    "minimum_fee":43,
    "visibility":"Public",
    "weight":-70,
    "is_active":1
  },
  "educator_professional":
    {
      "domain_id":1,
      "name":"Educator-Professional Annual",
      "description":"Annual Educator-Professional IIDA Membership",
      "member_of_contact":"International Interior Design Association",
      "duration_unit":"year",
      "duration_interval":1,
      "period_type":"fixed",
      "fixed_period_start_day":101,
      "fixed_period_rollover_day":1231,
      "minimum_fee":295,
      "visibility":"Public",
      "weight":-70,
      "is_active":1
    },
  "educator_professional_monthly":
    {
      "domain_id":1,
      "name":"Educator-Professional Monthly",
      "description":"Monthly Educator-Professional IIDA Membership",
      "member_of_contact":"International Interior Design Association",
      "duration_unit":"month",
      "duration_interval":1,
      "period_type":"rolling",
      "auto_renew":2,
      "minimum_fee":25,
      "visibility":"Public",
      "weight":-60,
      "is_active":1
    },
  "educator_associate":
    {
      "domain_id":1,
      "name":"Educator-Associate Annual",
      "description":"Annual Educator-Associate IIDA Membership",
      "member_of_contact":"International Interior Design Association",
      "duration_unit":"year",
      "duration_interval":1,
      "period_type":"fixed",
      "fixed_period_start_day":101,
      "fixed_period_rollover_day":1231,
      "minimum_fee":260,
      "visibility":"Public",
      "weight":-60,
      "is_active":1
    },
  "educator_associate_monthly":
    {
      "domain_id":1,
      "name":"Educator-Associate Monthly",
      "description":"Monthly Educator-Associate IIDA Membership",
      "member_of_contact":"International Interior Design Association",
      "duration_unit":"month",
      "duration_interval":1,
      "period_type":"rolling",
      "auto_renew":2,
      "minimum_fee":22,
      "visibility":"Public",
      "weight":-50,
      "is_active":1
    },
  "student":
    {
      "domain_id":1,
      "name":"Student Annual",
      "description":"Annual Student IIDA Membership",
      "member_of_contact":"International Interior Design Association",
      "duration_unit":"year",
      "duration_interval":1,
      "period_type":"fixed",
      "fixed_period_start_day":101,
      "fixed_period_rollover_day":1231,
      "minimum_fee":60,
      "visibility":"Public",
      "weight":-50,
      "is_active":1
    },
  "student_monthly":
    {
      "domain_id":1,
      "name":"Student Monthly",
      "description":"Monthly Student IIDA Membership",
      "member_of_contact":"International Interior Design Association",
      "duration_unit":"month",
      "duration_interval":1,
      "period_type":"rolling",
      "auto_renew":2,
      "minimum_fee":5,
      "visibility":"Public",
      "weight":-40,
      "is_active":1
    },
  "int_large_prof":
    {
      "domain_id":1,
      "name":"International at Large Professional Annual",
      "description":"Annual International at Large Professional IIDA Membership",
      "member_of_contact":"International Interior Design Association",
      "duration_unit":"year",
      "duration_interval":1,
      "period_type":"fixed",
      "fixed_period_start_day":101,
      "fixed_period_rollover_day":1231,
      "minimum_fee":355,
      "visibility":"Public",
      "weight":-50,
      "is_active":1
    },
  "int_large_prof_monthly":
    {
      "domain_id":1,
      "name":"International at Large Professional Monthly",
      "description":"Monthly International at Large Professional IIDA Membership",
      "member_of_contact":"International Interior Design Association",
      "duration_unit":"month",
      "duration_interval":1,
      "period_type":"rolling",
      "auto_renew":2,
      "minimum_fee":30,
      "visibility":"Public",
      "weight":-40,
      "is_active":1
    },
  "int_large_ass":
    {
      "domain_id":1,
      "name":"International at Large Associate Annual",
      "description":"Annual International at Large Associate IIDA Membership",
      "member_of_contact":"International Interior Design Association",
      "duration_unit":"year",
      "duration_interval":1,
      "period_type":"fixed",
      "fixed_period_start_day":101,
      "fixed_period_rollover_day":1231,
      "minimum_fee":200,
      "visibility":"Public",
      "weight":-50,
      "is_active":1
    },
  "int_large_ass_monthly":
    {
      "domain_id":1,
      "name":"International at Large Associate Monthly",
      "description":"Monthly International at Large Associate IIDA Membership",
      "member_of_contact":"International Interior Design Association",
      "duration_unit":"month",
      "duration_interval":1,
      "period_type":"rolling",
      "auto_renew":2,
      "minimum_fee":16.70,
      "visibility":"Public",
      "weight":-40,
      "is_active":1
    },
  "int_large_aff":
    {
      "domain_id":1,
      "name":"International at Large Affiliate Annual",
      "description":"Annual International at Large Affiliate IIDA Membership",
      "member_of_contact":"International Interior Design Association",
      "duration_unit":"year",
      "duration_interval":1,
      "period_type":"fixed",
      "fixed_period_start_day":101,
      "fixed_period_rollover_day":1231,
      "minimum_fee":355,
      "visibility":"Public",
      "weight":-50,
      "is_active":1
    },
  "int_large_aff_monthly":
    {
      "domain_id":1,
      "name":"International at Large Affiliate Monthly",
      "description":"Monthly International at Large Affiliate IIDA Membership",
      "member_of_contact":"International Interior Design Association",
      "duration_unit":"month",
      "duration_interval":1,
      "period_type":"rolling",
      "auto_renew":2,
      "minimum_fee":30,
      "visibility":"Public",
      "weight":-40,
      "is_active":1
    },
  "int_dual_prof":
    {
      "domain_id":1,
      "name":"International Dual Professional Annual",
      "description":"Annual International Dual Professional IIDA Membership",
      "member_of_contact":"International Interior Design Association",
      "duration_unit":"year",
      "duration_interval":1,
      "period_type":"fixed",
      "fixed_period_start_day":101,
      "fixed_period_rollover_day":1231,
      "minimum_fee":145,
      "visibility":"Public",
      "weight":-50,
      "is_active":1
    },
  "int_dual_prof_monthly":
    {
      "domain_id":1,
      "name":"International Dual Professional Monthly",
      "description":"Monthly International Dual Professional IIDA Membership",
      "member_of_contact":"International Interior Design Association",
      "duration_unit":"month",
      "duration_interval":1,
      "period_type":"rolling",
      "auto_renew":2,
      "minimum_fee":12.10,
      "visibility":"Public",
      "weight":-40,
      "is_active":1
    },
  "int_dual_ass":
    {
      "domain_id":1,
      "name":"International Dual Associate Annual",
      "description":"Annual International Dual Associate IIDA Membership",
      "member_of_contact":"International Interior Design Association",
      "duration_unit":"year",
      "duration_interval":1,
      "period_type":"fixed",
      "fixed_period_start_day":101,
      "fixed_period_rollover_day":1231,
      "minimum_fee":125,
      "visibility":"Public",
      "weight":-50,
      "is_active":1
    },
  "int_dual_ass_monthly":
    {
      "domain_id":1,
      "name":"International Dual Associate Monthly",
      "description":"Monthly International Dual Associate IIDA Membership",
      "member_of_contact":"International Interior Design Association",
      "duration_unit":"month",
      "duration_interval":1,
      "period_type":"rolling",
      "auto_renew":2,
      "minimum_fee":10.45,
      "visibility":"Public",
      "weight":-40,
      "is_active":1
    },
  "industry_individual":
    {
      "domain_id":1,
      "name":"Industry-Individual",
      "description":"Industry Individual Student IIDA Membership",
      "member_of_contact":"International Interior Design Association",
      "duration_unit":"year",
      "duration_interval":1,
      "period_type":"fixed",
      "minimum_fee":515,
      "fixed_period_start_day":101,
      "fixed_period_rollover_day":1231,
      "visibility":"Public",
      "weight":-30,
      "is_active":1
    },
  "industry_member_group":
    {
      "domain_id":1,
      "name":"Industry-Member Group",
      "description":"Industry Member Group IIDA Membership",
      "member_of_contact":"International Interior Design Association",
      "duration_unit":"year",
      "duration_interval":1,
      "period_type":"fixed",
      "minimum_fee":500,
      "fixed_period_start_day":101,
      "fixed_period_rollover_day":1231,
      "visibility":"Public",
      "weight":-20,
      "is_active":1
    },
  "base_representative":
    {
      "domain_id":1,
      "name":"Industry-Base Representative",
      "description":"Industry Base Representative Group IIDA Membership",
      "member_of_contact":"International Interior Design Association",
      "duration_unit":"year",
      "duration_interval":1,
      "period_type":"fixed",
      "minimum_fee":225,
      "fixed_period_start_day":101,
      "fixed_period_rollover_day":1231,
      "visibility":"Public",
      "weight":-10,
      "is_active":1
    },
  "int_design_school":
    {
      "domain_id":1,
      "name":"International Design School",
      "description":"International Design School IIDA Membership",
      "member_of_contact":"International Interior Design Association",
      "duration_unit":"year",
      "duration_interval":1,
      "period_type":"fixed",
      "minimum_fee":135,
      "fixed_period_start_day":101,
      "fixed_period_rollover_day":1231,
      "visibility":"Public",
      "weight":-10,
      "is_active":1
    },
  "campus_center":
    {
      "domain_id":1,
      "name":"Campus Center",
      "description":"Campus Center IIDA Membership",
      "member_of_contact":"International Interior Design Association",
      "duration_unit":"year",
      "duration_interval":1,
      "period_type":"fixed",
      "fixed_period_start_day":101,
      "fixed_period_rollover_day":1231,
      "visibility":"Public",
      "weight":-10,
      "is_active":1
    },
  "honorary":
    {
      "domain_id":1,
      "name":"Honorary",
      "description":"Honorary IIDA Membership",
      "member_of_contact":"International Interior Design Association",
      "duration_unit":"lifetime",
      "duration_interval":1,
      "period_type":"fixed",
      "visibility":"Public",
      "weight":-10,
      "is_active":1
    }
}