{
  "int_dual_member":{
    "name":"int_dual_member",
    "title":"International Dual Membership",
    "extends":"Membership",
    "extends_entity_column_value":[
      "International Dual Professional Annual",
      "International Dual Professional Monthly",
      "International Dual Associate Annual",
      "International Dual Associate Monthly"
    ],
    "style":"Inline",
    "is_active":1,
    "is_reserved":1,
    "collapse_display":0,
    "table_name":"civicrm_value_int_dual_member",
    "fields": {
      "out_of_country_member_id": {
        "name": "out_of_country_member_id",
        "label": "Out of Country Membership ID",
        "data_type":"String",
        "html_type":"Text",
        "is_searchable":1,
        "is_view":0,
        "column_name":"out_of_country_member_id",
        "weight":-130,
        "is_active":1
      },
      "country_designation": {
        "name": "country_designation",
        "label": "Country Designation",
        "data_type": "String",
        "html_type": "Select",
        "option_group": "country_designation",
        "is_searchable": 1,
        "is_view": 0,
        "column_name": "country_designation",
        "weight": -120,
        "is_active": 1
      }
    }
  }
}